
Для того, чтобы использовать утилиту, необходмо заполнить папку /data/ одним из двух способов:

--------------------------------------------------------------------------------------------
1) Скачать 7z-архив с гугл диска, с готовой файловой структурой и только используемым контентом (~40MB).
Все скачивать не нужно, только самый свежий архив из папки. И затем распаковать в /data/
data: https://drive.google.com/folderview?id=0B0acIR4O_XZySWFVVG1LSTVwblE&usp=drive_web

--------------------------------------------------------------------------------------------
2) Если есть установленная игра, то можно сделать это самому,
воспользовавшись следующей таблицей и утилитой IMG Tool.

--------------------------------------------------------------------------------------------
Категория			Целевая папка		<=		Оригинальная папка			Типы файлов
												или img-архив
--------------------------------------------------------------------------------------------
Анимация			<data>/anim		 			<gta3>/anim					ped.ifp
Коллизии			<data>/collisions			<gta3>/models/coll			*.col
Данные				<data>/data					<gta3>/data					*.dat, *.cfg, default.ide
Карты				<data>/maps					<gta3>/data/maps			*.ide, *.ipl, *.col
Модели				<data>/models				<gta3>/models/gta3.img		*.dff
Модели (Общее)		<data>/models/generic		<gta3>/models/generic		*.dff
Текстуры			<data>/textures				<gta3>/models/txd.img		*.txd
Текстуры (Общее)	<data>/textures/generic		<gta3>/models				*.txd
Пути				<data>/paths				<gta3>/data/paths			*.dat

--------------------------------------------------------------------------------------------
Img Tool: http://www.libertycity.ru/files/gta-san-andreas/41-img-tool-2.0.html
--------------------------------------------------------------------------------------------